{
  "@context": "https://doi.org/10.5063/schema/codemeta-2.0",
  "@type": "SoftwareSourceCode",
  "name": "Codemeta sample with all king of accepted Zenodo schema person properties.",
  "version": "0.1",
  "author": [
    {
      "@type": "Person",
      "givenName": "Author-and-Creator-same-person-name",
      "familyName": "Author-and-Creator-same-person-surname",
      "affiliation": {
        "@type": "Organization",
        "name": "Author-and-Creator-same-person-affiliation"
      },
      "email": "Author-and-Creator-same-person-email",
      "@id": "Author-and-Creator-same-person-identifier"
    }
  ],
  "creator": {
    "@type": "Person",
    "givenName": "Author-and-Creator-same-person-name",
    "familyName": "Author-and-Creator-same-person-surname",
    "affiliation": {
      "@type": "Organization",
      "name": "Author-and-Creator-same-person-affiliation"
    },
    "email": "Author-and-Creator-same-person-email",
    "@id": "Author-and-Creator-same-person-identifier"
  },
  "maintainer": {
    "@type": "Person",
    "givenName": "Maintainer-name",
    "familyName": "Maintainer-surname",
    "affiliation": {
      "@type": "Organization",
      "name": "Maintainer-affiliation"
    },
    "@id": "https://orcid.org/0000-0000-0000-0000"
  },
  "contributor": [
    {
      "@type": "ResearchOrganization",
      "@id": "https://ror.org/",
      "name:": "Some Research Org"
    },
    {
      "@type": "Person",
      "givenName": "Contributor-name",
      "familyName": "Contributor-surname"
    }
  ],
  "producer": {
    "@type": "Person",
    "givenName": "Producer-name",
    "familyName": "Producer-surname"
  },
  "editor": {
    "@type": "Person",
    "givenName": "Editor-name",
    "familyName": "Editor-surname"
  },
  "publisher": {
    "@type": "Person",
    "givenName": "Publisher-name",
    "familyName": "Publisher-surname"
  },
  "provider": {
    "@type": "Person",
    "givenName": "Provider-name",
    "familyName": "Provider-surname"
  },
  "sponsor": {
    "@type": "Person",
    "givenName": "Sponsor-name",
    "familyName": "Sponsor-surname"
  }
}
